{
  "company": {
    "department": [
      {
        "employee": [
          {
            "lastName": "Bogoliuc",
            "firstName": "Vasilii",
            "birthDate": "04.07.1997",
            "position": "Department Manager",
            "skills": {
              "skill": [
                "Communication",
                "Java",
                "Yes"
              ]
            },
            "managerId": "0",
            "empId": "01"
          },
          {
            "lastName": "Croitor",
            "firstName": "Florin",
            "birthDate": "12.04.1997",
            "position": "Developer",
            "skills": {
              "skill": [
                "Works efficiently",
                "Overtimes without concerns",
                "Always on time for work"
              ]
            },
            "managerId": "01",
            "_empId": "02"
          }
        ],
        "name": "Development",
        "depId": "1"
      },
      {
        "employee": [
          {
            "lastName": "Cara",
            "firstName": "Stefan",
            "birthDate": "13.02.1996",
            "position": "Accountant",
            "skills": {
              "skill": [
                "Constantly learning",
                "Emphasizing accuaracy",
                "Organizational skills"
              ]
            },
            "managerId": "02",
            "empId": "03"
          },
          {
            "lastName": "Dilion",
            "firstName": "Mihai",
            "birthDate": "22.09.1996",
            "position": "Accounting Assistant",
            "skills": {
              "skill": [
                "Knowledge of the filed",
                "Trustworthiness and reliability",
                "Ability to work in a team"
              ]
            },
            "managerId": "03",
            "empId": "04"
          },
          {
            "lastName": "Bulat",
            "firstName": "Ilie",
            "birthDate": "02.02.1997",
            "position": "Budget Analyst",
            "skills": {
              "skill": [
                "Creativity",
                "Strong attention to detail",
                "Good communication skills"
              ]
            },
            "managerId": "04",
            "empId": "05"
          }
        ],
        "name": "Accounting",
        "depId": "2"
      }
    ]
  }
}